{
  "project_type": "Intranet Project Type",
  "customer_contact": "",
  "customer_email": "",
  "skill": "Intranet Skill Type",
  "source_language": "Intranet Translation Language",
  "target_language": "Intranet Translation Language",
  "subject_area": "Intranet Translation Subject Area",
  "invoice_address": ""
}
